tratamiento,nombre,apellido,email,telefono,variable auxiliar 1,variable auxiliar 2,variable auxiliar 3,variable auxiliar 4,variable auxiliar 5,variable auxiliar 6,variable auxiliar 7
Estimada,Lucia,Kina,lkina1@inventarte.net,0,usuario de prueba,10000,no contactar,,,,
Estimado,Sergio,Huayanay,shuayanay1@inventarte.net,0,usuario de prueba,6400,no contactar,,,,
Estimado,Javier,Albarracin,javier1@fluye.com,0,usuario de prueba,3000,no contactar,,,,
Estimado,Renzo,Ludena,rludena1@quanticotrends.com,0,usuario de prueba,2100,no contactar,,,,
Estimada,Renzo,Ludena,rludena1@inventarte.net,0,usuario de prueba,1500,no contactar,,,,
Estimado,Javier,Albarracin,jalbarracin1@quanticotrends.com,0,usuario de prueba,3600,no contactar,,,,
Estimado,Jesus,Rodriguez,jrodriguez1@quanticotrends.com,0,usuario de prueba,1000,no contactar,,,,
Estimada,Paula,Staurini,paula1@fluye.com,0,usuario de prueba,2300,no contactar,,,,
Estimada,Lucia,Kina,lkina1@quanticotrends.com,0,usuario de prueba,7000,no contactar,,,,
Estimado,Sergio,Huayanay,sergio1@fluye.com,0,usuario de prueba,5200,no contactar,,,,
